<svg width="16" height="20" viewBox="0 0 16 20" fill="none" xmlns="http://www.w3.org/2000/svg">
<path d="M14.6668 5.83341V14.1667C14.6668 17.5001 13.8335 18.3334 10.5002 18.3334H5.50016C2.16683 18.3334 1.3335 17.5001 1.3335 14.1667V5.83341C1.3335 2.50008 2.16683 1.66675 5.50016 1.66675H10.5002C13.8335 1.66675 14.6668 2.50008 14.6668 5.83341Z" stroke="#292D32" stroke-width="1.5" stroke-linecap="round" stroke-linejoin="round"/>
<path d="M9.66683 4.5835H6.3335" stroke="#292D32" stroke-width="1.5" stroke-linecap="round" stroke-linejoin="round"/>
<path d="M8.00016 15.9168C8.71353 15.9168 9.29183 15.3385 9.29183 14.6252C9.29183 13.9118 8.71353 13.3335 8.00016 13.3335C7.28679 13.3335 6.7085 13.9118 6.7085 14.6252C6.7085 15.3385 7.28679 15.9168 8.00016 15.9168Z" stroke="#292D32" stroke-width="1.5" stroke-linecap="round" stroke-linejoin="round"/>
</svg>
